{
  "one": {
    "0": "Zero",
    "1": "One",
    "2": "Two",
    "3": "Three",
    "4": "Four",
    "5": "Five",
    "6": "Six",
    "7": "Seven",
    "8": "Eight",
    "9": "Nine"
  },
  "two": {
    "0": "Ten",
    "1": "Eleven",
    "2": "Twelve",
    "3": "Thirteen",
    "4": "Fourteen",
    "5": "Fifteen",
    "6": "Sixteen",
    "7": "Seventeen",
    "8": "Eighteen",
    "9": "Nineteen"
  },
  "tens": {
    "0": "",
    "1": "Ten",
    "2": "Twenty",
    "3": "Thirty",
    "4": "Forty",
    "5": "Fifty",
    "6": "Sixty",
    "7": "Seventy",
    "8": "Eighty",
    "9": "Ninety"
  },
  "tensPower": {
    "3": "Thousand",
    "6": "Million",
    "9": "Billion",
    "12": "Trillion",
    "15": "Quadrillion",
    "18": "Quintillion",
    "21": "Sextillion",
    "24": "Septillion"
  },
  "others": {
    "Hundred": "Hundred",
    "And": "And",
    "Minus": "Minus",
    "CurrencyName": "Dollar",
    "CurrencyFraction": "Cent"
  }
}